Table 4-10 to 11 SHGC NN	Com	WH	HD	Te	Cold	CZ	CZ2
<Blank>	NA	NA	NA	NA	NA	NA	NA
ECBC	0.27	0.27	0.27	0.27	0.62	NA	NA
ECBC+	0.25	0.25	0.25	0.25	0.62	NA	NA
Net Zero	NA	NA	NA	NA	NA	NA	NA
Super ECBC	0.25	0.25	0.25	0.25	0.62	NA	NA